Pedicting March Madness using Machine Learning - Macrae Maschka's Github Site
…
Evaluating the Model

Let’s check how we did. We how our trained data that should turn out very accurate if you do this right. We can see that we predicted Abilene Christian’s 2014-15 Season extremely accurately.

This could be interesting. Lets see how we do.

trainpredict <- log_fit %>% predict(new_data = log_train) %>%
  bind_cols(log_train)

trainpredict

## # A tibble: 38,537 x 18
##    .pred_class Season Team  Date       Opponent Outcome Cumulative_Mean~
##    <fct>       <chr>  <chr> <date>     <chr>    <fct>              <dbl>
##  1 L           2014-~ Abil~ 2014-11-19 Tulsa    L                   94.9
##  2 L           2014-~ Abil~ 2014-11-22 Duquesne L                   97.4
##  3 L           2014-~ Abil~ 2014-11-29 UC-Rive~ L                   98.7
##  4 W           2014-~ Abil~ 2014-12-04 Sacrame~ W                  100. 
##  5 L           2014-~ Abil~ 2014-12-06 Houston  L                   98.7
##  6 L           2014-~ Abil~ 2014-12-17 Loyola ~ L                   95.7
##  7 W           2014-~ Abil~ 2014-12-23 Arkansa~ W                   92.9
##  8 L           2014-~ Abil~ 2014-12-28 Grand C~ L                   94.0
##  9 W           2014-~ Abil~ 2015-01-04 Central~ W                   96.0
## 10 W           2014-~ Abil~ 2015-01-10 Nicholl~ W                   96.3
## # ... with 38,527 more rows, and 11 more variables:
## #   Cumulative_Mean_Defensive <dbl>, TeamSRS <dbl>, TeamSOS <dbl>,
## #   Cumulative_Pace <dbl>, Veterans <int>, Opponent_Cumulative_Offensive <dbl>,
## #   Opponent_Cumulative_Mean_Defensive <dbl>, OpponentSRS <dbl>,
## #   OpponentSOS <dbl>, Opponent_Cumulative_Pace <dbl>, OpponentVeterans <int>
…
